{
    "version": 3,
    "configurePresets": [
        {
            "name": "base",
            "displayName": "base preset",
            "generator": "Ninja",
	    "binaryDir": "${sourceDir}/build-${presetName}",
	    "installDir": "$env{KF5}",
            "hidden": true
        },
        {
            "name": "base-qt6",
            "displayName": "base preset",
            "generator": "Ninja",
            "binaryDir": "${sourceDir}/build-${presetName}",
            "installDir": "$env{KF6}",
            "hidden": true
        },
        {
            "name": "dev-mold",
            "displayName": "Build as debug + using mold linker",
            "cacheVariables": {
                "CMAKE_BUILD_TYPE": "Debug",
                "CMAKE_EXPORT_COMPILE_COMMANDS": "ON",
                "CMAKE_SHARED_LINKER_FLAGS": "-fuse-ld=mold"
            },
            "inherits": [
                "base"
            ]
        },
	{
            "name": "dev",
            "displayName": "Build as debug",
            "cacheVariables": {
                "CMAKE_BUILD_TYPE": "Debug",
                "CMAKE_EXPORT_COMPILE_COMMANDS": "ON"
            },
            "inherits": [
                "base"
            ]

        },
        {
            "name": "coverage",
            "displayName": "Build as debug",
            "cacheVariables": {
                "CMAKE_BUILD_TYPE": "Debug",
                "BUILD_COVERAGE": "ON",
                "CMAKE_EXPORT_COMPILE_COMMANDS": "ON"
            },
            "inherits": [
                "base"
            ]
        },
        {
            "name": "dev-qt6",
            "displayName": "Build against qt6",
            "binaryDir": "${sourceDir}/build-qt6",
            "cacheVariables": {
                "CMAKE_BUILD_TYPE": "Debug",
                "BUILD_WITH_QT6": "ON",
                "CMAKE_EXPORT_COMPILE_COMMANDS": "ON"
            },
            "inherits": [
                "base-qt6"
            ]
        },
        {
            "name": "dev-disable-deprecated",
            "displayName": "Build as without deprecated methods",
            "cacheVariables": {
                "CMAKE_BUILD_TYPE": "Debug",
                "CMAKE_EXPORT_COMPILE_COMMANDS": "ON",
                "CMAKE_CXX_FLAGS_INIT": "-DQT_DISABLE_DEPRECATED_BEFORE=0x060000 -DKF_DISABLE_DEPRECATED_BEFORE_AND_AT=0x060000"
            },
            "inherits": [
                "base"
            ]
        },
        {
            "name": "asan",
            "displayName": "Build with Asan support.",
            "cacheVariables": {
                "CMAKE_BUILD_TYPE": "Debug",
                "ECM_ENABLE_SANITIZERS" : "'address;undefined'",
                "CMAKE_EXPORT_COMPILE_COMMANDS": "ON"
            },
            "inherits": [
                "base"
            ]
        },
        {
            "name": "pch",
            "displayName": "Build with PCH support.",
            "cacheVariables": {
                "CMAKE_BUILD_TYPE": "Debug",
		"COMPILE_WITH_CMAKE_PCH_SUPPORT": "ON",
                "CMAKE_EXPORT_COMPILE_COMMANDS": "ON"
            },
            "inherits": [
                "base"
            ]
        },
        {
            "name": "dev-clang",
            "displayName": "dev-clang",
            "cacheVariables": {
                "CMAKE_BUILD_TYPE": "Debug",
                "CMAKE_EXPORT_COMPILE_COMMANDS": "ON"
            },
            "environment": {
                "CXX": "clang++",
                "CCACHE_DISABLE": "ON"
            },
            "inherits": [
                "base"
            ]
        },
        {
            "name": "unity",
            "displayName": "Build with CMake unity support.",
            "cacheVariables": {
                "CMAKE_BUILD_TYPE": "Debug",
                "USE_UNITY_CMAKE_SUPPORT": "ON",
                "CMAKE_EXPORT_COMPILE_COMMANDS": "ON"
            },
            "inherits": [
                "base"
            ]
        },
        {
            "name": "release",
            "displayName": "Build as release mode.",
            "cacheVariables": {
                "CMAKE_BUILD_TYPE": "Release"
            },
            "inherits": [
                "base"
            ]
        },
        {
            "name": "profile",
            "displayName": "profile",
            "cacheVariables": {
                "CMAKE_BUILD_TYPE": "RelWithDebInfo",
                "CMAKE_EXPORT_COMPILE_COMMANDS": "ON"
            },
            "inherits": [
                "base"
            ]
        },
        {
            "name": "clazy",
            "displayName": "clazy",
            "cacheVariables": {
                "CMAKE_BUILD_TYPE": "Debug"
            },
            "environment": {
                "CXX": "clazy",
                "CCACHE_DISABLE": "ON"
            },
            "inherits": [
                "base"
            ]
        }

    ],
    "buildPresets": [
        {
            "name": "dev",
            "configurePreset": "dev"
        },
        {
            "name": "dev-textaddons-mold",
            "configurePreset": "dev-textaddons-mold"
        },
        {
            "name": "dev-mold",
            "configurePreset": "dev-mold"
        },
        {
            "name": "dev-qt6",
            "configurePreset": "dev-qt6"
        },
        {
            "name": "dev-disable-deprecated",
            "configurePreset": "dev-disable-deprecated"
        },
        {
            "name": "pch",
            "configurePreset": "pch"
        },
        {
            "name": "release",
            "configurePreset": "release"
        },
        {
            "name": "coverage",
            "configurePreset": "coverage"
        },
        {
            "name": "dev-clang",
            "configurePreset": "dev-clang"
        },
        {
            "name": "asan",
            "configurePreset": "asan"
        },
        {
            "name": "unity",
            "configurePreset": "unity"
        },
        {
            "name": "clazy",
            "configurePreset": "clazy",
            "environment": {
                "CLAZY_CHECKS" : "level0,level1,detaching-member,ifndef-define-typo,isempty-vs-count,qrequiredresult-candidates,reserve-candidates,signal-with-return-value,unneeded-cast,function-args-by-ref,function-args-by-value,returning-void-expression,no-ctor-missing-parent-argument,isempty-vs-count,qhash-with-char-pointer-key,raw-environment-function,qproperty-type-mismatch,old-style-connect,qstring-allocations,container-inside-loop,heap-allocated-small-trivial-type,inefficient-qlist,qstring-varargs,level2,detaching-member,heap-allocated-small-trivial-type,isempty-vs-count,qstring-varargs,qvariant-template-instantiation,raw-environment-function,reserve-candidates,signal-with-return-value,thread-with-slots,no-ctor-missing-parent-argument,no-missing-typeinfo",
                "CCACHE_DISABLE" : "ON"
            }
        }
    ],
    "testPresets": [
    { 
      "name": "dev",
      "configurePreset": "dev",
      "output": {"outputOnFailure": true},
      "execution": {"noTestsAction": "error", "stopOnFailure": false}
    },
    { 
      "name": "asan",
      "configurePreset": "asan",
      "output": {"outputOnFailure": true},
      "execution": {"noTestsAction": "error", "stopOnFailure": true}
    }
    ]
}
